{
    "count": 92,
    "next": "https://api.baseapp.tsl.io/v1/users?page=3",
    "previous": "https://api.baseapp.tsl.io/v1/users",
    "results": [
                {
                "first_name": "J",
                "id": 6,
                "last_name": "K",
                "avatar": {
                "full_size": "https://baseapp-api-staging.s3.amazonaws.com:443/media/user-avatars/jk%40tsl.io/resized/1024/0a91c6a7-4de.png",
                "small": "https://baseapp-api-staging.s3.amazonaws.com:443/media/user-avatars/jk%40tsl.io/resized/64/0a91c6a7-4de.png"
                }
                },
                {
                "first_name": "",
                "id": 1,
                "last_name": "",
                "avatar": {
                "full_size": "https://www.gravatar.com/avatar/9075b71e3982d34efe20e5dbc947d2dd/?d=retro&s=1024",
                "small": "https://www.gravatar.com/avatar/9075b71e3982d34efe20e5dbc947d2dd/?d=retro&s=64"
                }
                },
                {
                "first_name": "Sha",
                "id": 73,
                "last_name": "Test",
                "avatar": {
                "full_size": "https://www.gravatar.com/avatar/831e65bf035c15801bfb231f5cbf3d30/?d=retro&s=1024",
                "small": "https://www.gravatar.com/avatar/831e65bf035c15801bfb231f5cbf3d30/?d=retro&s=64"
                }
                },
                {
                "first_name": "Ryan",
                "id": 106,
                "last_name": "Pineo",
                "avatar": {
                "full_size": "https://baseapp-api-staging.s3.amazonaws.com:443/media/user-avatars/ry%40tsl.io/resized/1024/pic.jpg",
                "small": "https://baseapp-api-staging.s3.amazonaws.com:443/media/user-avatars/ry%40tsl.io/resized/64/pic.jpg"
                }
                },
                {
                "first_name": "",
                "id": 108,
                "last_name": "",
                "avatar": {
                "full_size": "https://www.gravatar.com/avatar/280e9629829397933db1e695aa538e4a/?d=retro&s=1024",
                "small": "https://www.gravatar.com/avatar/280e9629829397933db1e695aa538e4a/?d=retro&s=64"
                }
                },
                {
                "first_name": "David",
                "id": 109,
                "last_name": "Hartmann",
                "avatar": {
                "full_size": "https://baseapp-api-staging.s3.amazonaws.com:443/media/user-avatars/d.hartmann91%40web.de/resized/1024/pic.jpg",
                "small": "https://baseapp-api-staging.s3.amazonaws.com:443/media/user-avatars/d.hartmann91%40web.de/resized/64/pic.jpg"
                }
                },
                {
                "first_name": "",
                "id": 115,
                "last_name": "",
                "avatar": {
                "full_size": "https://www.gravatar.com/avatar/b2bef813ff1a13c47fe62b11449bf8de/?d=retro&s=1024",
                "small": "https://www.gravatar.com/avatar/b2bef813ff1a13c47fe62b11449bf8de/?d=retro&s=64"
                }
                },
                {
                "first_name": "",
                "id": 122,
                "last_name": "",
                "avatar": {
                "full_size": "https://www.gravatar.com/avatar/a5eb400b8c1d43dc72d2f3eb9bf9df1a/?d=retro&s=1024",
                "small": "https://www.gravatar.com/avatar/a5eb400b8c1d43dc72d2f3eb9bf9df1a/?d=retro&s=64"
                }
                },
                {
                "first_name": "",
                "id": 123,
                "last_name": "",
                "avatar": {
                "full_size": "https://www.gravatar.com/avatar/1150ccb6adb5bd32db117cddffc2a0a7/?d=retro&s=1024",
                "small": "https://www.gravatar.com/avatar/1150ccb6adb5bd32db117cddffc2a0a7/?d=retro&s=64"
                }
                },
                {
                "first_name": "",
                "id": 125,
                "last_name": "",
                "avatar": {
                "full_size": "https://www.gravatar.com/avatar/c3c78f8b81e46203a1c595ef1532cd3e/?d=retro&s=1024",
                "small": "https://www.gravatar.com/avatar/c3c78f8b81e46203a1c595ef1532cd3e/?d=retro&s=64"
                }
                },
                {
                "first_name": "",
                "id": 124,
                "last_name": "",
                "avatar": {
                "full_size": "https://www.gravatar.com/avatar/a3f16831706fb71bdb766716bec1812e/?d=retro&s=1024",
                "small": "https://www.gravatar.com/avatar/a3f16831706fb71bdb766716bec1812e/?d=retro&s=64"
                }
                },
                {
                "first_name": "",
                "id": 62,
                "last_name": "",
                "avatar": {
                "full_size": "https://www.gravatar.com/avatar/2f1687e4b964ee83ce8b8c198c28ce96/?d=retro&s=1024",
                "small": "https://www.gravatar.com/avatar/2f1687e4b964ee83ce8b8c198c28ce96/?d=retro&s=64"
                }
                },
                {
                "first_name": "",
                "id": 96,
                "last_name": "",
                "avatar": {
                "full_size": "https://www.gravatar.com/avatar/0289b81daedbe72a8b1187b8c2b7d89c/?d=retro&s=1024",
                "small": "https://www.gravatar.com/avatar/0289b81daedbe72a8b1187b8c2b7d89c/?d=retro&s=64"
                }
                },
                {
                "first_name": "",
                "id": 128,
                "last_name": "",
                "avatar": {
                "full_size": "https://www.gravatar.com/avatar/f1cd99a0021a6c2513ab52a21bc655e1/?d=retro&s=1024",
                "small": "https://www.gravatar.com/avatar/f1cd99a0021a6c2513ab52a21bc655e1/?d=retro&s=64"
                }
                },
                {
                "first_name": "",
                "id": 130,
                "last_name": "",
                "avatar": {
                "full_size": "https://www.gravatar.com/avatar/6f7c04cdf1a1f9e884f745786ca93faf/?d=retro&s=1024",
                "small": "https://www.gravatar.com/avatar/6f7c04cdf1a1f9e884f745786ca93faf/?d=retro&s=64"
                }
                },
                {
                "first_name": "Dog",
                "id": 132,
                "last_name": "",
                "avatar": {
                "full_size": "https://baseapp-api-staging.s3.amazonaws.com:443/media/user-avatars/ce%2Bfwafew%40tsl.io/resized/1024/5235de17-349.png",
                "small": "https://baseapp-api-staging.s3.amazonaws.com:443/media/user-avatars/ce%2Bfwafew%40tsl.io/resized/64/5235de17-349.png"
                }
                },
                {
                "first_name": "",
                "id": 189,
                "last_name": "",
                "avatar": {
                "full_size": "https://www.gravatar.com/avatar/1d19878ef8b7891723d066713b87cf5e/?d=retro&s=1024",
                "small": "https://www.gravatar.com/avatar/1d19878ef8b7891723d066713b87cf5e/?d=retro&s=64"
                }
                },
                {
                "first_name": "first name",
                "id": 155,
                "last_name": "last name",
                "avatar": {
                "full_size": "https://www.gravatar.com/avatar/60708397ccb2ec3659a128a5bd4af55b/?d=retro&s=1024",
                "small": "https://www.gravatar.com/avatar/60708397ccb2ec3659a128a5bd4af55b/?d=retro&s=64"
                }
                },
                {
                "first_name": "",
                "id": 160,
                "last_name": "",
                "avatar": {
                "full_size": "https://www.gravatar.com/avatar/335715089e19d4c4d53a85a2f9cb67a9/?d=retro&s=1024",
                "small": "https://www.gravatar.com/avatar/335715089e19d4c4d53a85a2f9cb67a9/?d=retro&s=64"
                }
                },
                {
                "first_name": "Seven",
                "id": 204,
                "last_name": "Escalante",
                "avatar": {
                "full_size": "https://baseapp-api-staging.s3.amazonaws.com:443/media/user-avatars/ce%2B312%40tsl.io/resized/1024/pic.jpg",
                "small": "https://baseapp-api-staging.s3.amazonaws.com:443/media/user-avatars/ce%2B312%40tsl.io/resized/64/pic.jpg"
                }
                },
                {
                "first_name": "GT",
                "id": 167,
                "last_name": "R",
                "avatar": {
                "full_size": "https://baseapp-api-staging.s3.amazonaws.com:443/media/user-avatars/gr%2Blot9%40tsl.io/resized/1024/81deeddb-deb.png",
                "small": "https://baseapp-api-staging.s3.amazonaws.com:443/media/user-avatars/gr%2Blot9%40tsl.io/resized/64/81deeddb-deb.png"
                }
                },
                {
                "first_name": "Beast",
                "id": 148,
                "last_name": "Meister",
                "avatar": {
                "full_size": "https://baseapp-api-staging.s3.amazonaws.com:443/media/user-avatars/sh%2B3%40tsl.io/resized/1024/48f5eaa7-927.png",
                "small": "https://baseapp-api-staging.s3.amazonaws.com:443/media/user-avatars/sh%2B3%40tsl.io/resized/64/48f5eaa7-927.png"
                }
                },
                {
                "first_name": "test",
                "id": 8,
                "last_name": "",
                "avatar": {
                "full_size": "https://baseapp-api-staging.s3.amazonaws.com:443/media/user-avatars/ce%40tsl.io/resized/1024/23d4addf-00c.png",
                "small": "https://baseapp-api-staging.s3.amazonaws.com:443/media/user-avatars/ce%40tsl.io/resized/64/23d4addf-00c.png"
                }
                },
                {
                "first_name": "",
                "id": 199,
                "last_name": "",
                "avatar": {
                "full_size": "https://www.gravatar.com/avatar/4bc18716906cb0617e0ac17408093196/?d=retro&s=1024",
                "small": "https://www.gravatar.com/avatar/4bc18716906cb0617e0ac17408093196/?d=retro&s=64"
                }
                },
                {
                "first_name": "",
                "id": 153,
                "last_name": "",
                "avatar": {
                "full_size": "https://www.gravatar.com/avatar/33a963dbf638acf7e33c4ac7687e913b/?d=retro&s=1024",
                "small": "https://www.gravatar.com/avatar/33a963dbf638acf7e33c4ac7687e913b/?d=retro&s=64"
                }
                },
                {
                "first_name": "",
                "id": 183,
                "last_name": "",
                "avatar": {
                "full_size": "https://www.gravatar.com/avatar/c60b9f683bec9b51d3d3e67d6a3c0848/?d=retro&s=1024",
                "small": "https://www.gravatar.com/avatar/c60b9f683bec9b51d3d3e67d6a3c0848/?d=retro&s=64"
                }
                },
                {
                "first_name": "",
                "id": 173,
                "last_name": "",
                "avatar": {
                "full_size": "https://www.gravatar.com/avatar/7eefe2ab53e56d8d959fca9282017ff6/?d=retro&s=1024",
                "small": "https://www.gravatar.com/avatar/7eefe2ab53e56d8d959fca9282017ff6/?d=retro&s=64"
                }
                },
                {
                "first_name": "",
                "id": 174,
                "last_name": "",
                "avatar": {
                "full_size": "https://www.gravatar.com/avatar/1b46ac60d6f3c654a833cbd8f95e5840/?d=retro&s=1024",
                "small": "https://www.gravatar.com/avatar/1b46ac60d6f3c654a833cbd8f95e5840/?d=retro&s=64"
                }
                },
                {
                "first_name": "",
                "id": 179,
                "last_name": "",
                "avatar": {
                "full_size": "https://www.gravatar.com/avatar/cc188fc55a0db8f61e92f0b26d0816f3/?d=retro&s=1024",
                "small": "https://www.gravatar.com/avatar/cc188fc55a0db8f61e92f0b26d0816f3/?d=retro&s=64"
                }
                },
                {
                "first_name": "",
                "id": 180,
                "last_name": "",
                "avatar": {
                "full_size": "https://www.gravatar.com/avatar/afa88c1fe7c2290979f6556c3a74bf65/?d=retro&s=1024",
                "small": "https://www.gravatar.com/avatar/afa88c1fe7c2290979f6556c3a74bf65/?d=retro&s=64"
                }
                }
                ]
}
