{
    "count": 92,
    "next": "https://api.baseapp.tsl.io/v1/users?page=2",
    "previous": null,
    "results": [
                {
                "first_name": "",
                "id": 27,
                "last_name": "",
                "avatar": {
                "full_size": "https://www.gravatar.com/avatar/dfecf7ab1ec961d5757e76b606e2ac32/?d=retro&s=1024",
                "small": "https://www.gravatar.com/avatar/dfecf7ab1ec961d5757e76b606e2ac32/?d=retro&s=64"
                }
                },
                {
                "first_name": "",
                "id": 11,
                "last_name": "",
                "avatar": {
                "full_size": "https://www.gravatar.com/avatar/d989e903766a52e36c29494bf72e88b0/?d=retro&s=1024",
                "small": "https://www.gravatar.com/avatar/d989e903766a52e36c29494bf72e88b0/?d=retro&s=64"
                }
                },
                {
                "first_name": "",
                "id": 30,
                "last_name": "",
                "avatar": {
                "full_size": "https://www.gravatar.com/avatar/54dfb5051dba08622cf624db9ff7556a/?d=retro&s=1024",
                "small": "https://www.gravatar.com/avatar/54dfb5051dba08622cf624db9ff7556a/?d=retro&s=64"
                }
                },
                {
                "first_name": "",
                "id": 12,
                "last_name": "",
                "avatar": {
                "full_size": "https://www.gravatar.com/avatar/2feee1997cbd8841c513f2f3f073f471/?d=retro&s=1024",
                "small": "https://www.gravatar.com/avatar/2feee1997cbd8841c513f2f3f073f471/?d=retro&s=64"
                }
                },
                {
                "first_name": "",
                "id": 13,
                "last_name": "",
                "avatar": {
                "full_size": "https://www.gravatar.com/avatar/36963a789dc87a704071387f4603c105/?d=retro&s=1024",
                "small": "https://www.gravatar.com/avatar/36963a789dc87a704071387f4603c105/?d=retro&s=64"
                }
                },
                {
                "first_name": "",
                "id": 14,
                "last_name": "",
                "avatar": {
                "full_size": "https://www.gravatar.com/avatar/be06b764c8b98cd788ab449a85ce5f8e/?d=retro&s=1024",
                "small": "https://www.gravatar.com/avatar/be06b764c8b98cd788ab449a85ce5f8e/?d=retro&s=64"
                }
                },
                {
                "first_name": "",
                "id": 16,
                "last_name": "",
                "avatar": {
                "full_size": "https://www.gravatar.com/avatar/2eac2efba4efe59372b4810362580c41/?d=retro&s=1024",
                "small": "https://www.gravatar.com/avatar/2eac2efba4efe59372b4810362580c41/?d=retro&s=64"
                }
                },
                {
                "first_name": "",
                "id": 17,
                "last_name": "",
                "avatar": {
                "full_size": "https://www.gravatar.com/avatar/1075807e454da9f92486b1233cb1e51a/?d=retro&s=1024",
                "small": "https://www.gravatar.com/avatar/1075807e454da9f92486b1233cb1e51a/?d=retro&s=64"
                }
                },
                {
                "first_name": "",
                "id": 18,
                "last_name": "",
                "avatar": {
                "full_size": "https://www.gravatar.com/avatar/8e66f8e3b190fda8243f3d18114e0a60/?d=retro&s=1024",
                "small": "https://www.gravatar.com/avatar/8e66f8e3b190fda8243f3d18114e0a60/?d=retro&s=64"
                }
                },
                {
                "first_name": "",
                "id": 20,
                "last_name": "",
                "avatar": {
                "full_size": "https://www.gravatar.com/avatar/5329e3363baa69756aa4db82826c272d/?d=retro&s=1024",
                "small": "https://www.gravatar.com/avatar/5329e3363baa69756aa4db82826c272d/?d=retro&s=64"
                }
                },
                {
                "first_name": "Kevin",
                "id": 116,
                "last_name": "Kl",
                "avatar": {
                "full_size": "https://baseapp-api-staging.s3.amazonaws.com:443/media/user-avatars/kl%40tsl.io/resized/1024/91977c6b-d70.png",
                "small": "https://baseapp-api-staging.s3.amazonaws.com:443/media/user-avatars/kl%40tsl.io/resized/64/91977c6b-d70.png"
                }
                },
                {
                "first_name": "",
                "id": 22,
                "last_name": "",
                "avatar": {
                "full_size": "https://www.gravatar.com/avatar/f24249326bbfe7682357d656500b40ed/?d=retro&s=1024",
                "small": "https://www.gravatar.com/avatar/f24249326bbfe7682357d656500b40ed/?d=retro&s=64"
                }
                },
                {
                "first_name": "",
                "id": 31,
                "last_name": "",
                "avatar": {
                "full_size": "https://baseapp-api-staging.s3.amazonaws.com:443/media/user-avatars/ce%2B9%40tsl.io/resized/1024/bab1818f-431.png",
                "small": "https://baseapp-api-staging.s3.amazonaws.com:443/media/user-avatars/ce%2B9%40tsl.io/resized/64/bab1818f-431.png"
                }
                },
                {
                "first_name": "",
                "id": 29,
                "last_name": "",
                "avatar": {
                "full_size": "https://baseapp-api-staging.s3.amazonaws.com:443/media/user-avatars/gr%2B01%40tsl.io/resized/1024/241e00e4-741.png",
                "small": "https://baseapp-api-staging.s3.amazonaws.com:443/media/user-avatars/gr%2B01%40tsl.io/resized/64/241e00e4-741.png"
                }
                },
                {
                "first_name": "",
                "id": 119,
                "last_name": "",
                "avatar": {
                "full_size": "https://www.gravatar.com/avatar/b5ec1f80882336fc470717b46b9bf52e/?d=retro&s=1024",
                "small": "https://www.gravatar.com/avatar/b5ec1f80882336fc470717b46b9bf52e/?d=retro&s=64"
                }
                },
                {
                "first_name": "Johnny",
                "id": 57,
                "last_name": "Kay",
                "avatar": {
                "full_size": "https://baseapp-api-staging.s3.amazonaws.com:443/media/user-avatars/jkacalak%40gmail.com/resized/1024/pic.jpg",
                "small": "https://baseapp-api-staging.s3.amazonaws.com:443/media/user-avatars/jkacalak%40gmail.com/resized/64/pic.jpg"
                }
                },
                {
                "first_name": "Pink Blob",
                "id": 81,
                "last_name": "Thing",
                "avatar": {
                "full_size": "https://www.gravatar.com/avatar/96aabb5bf6cb75d8fd8e015429e6a1c6/?d=retro&s=1024",
                "small": "https://www.gravatar.com/avatar/96aabb5bf6cb75d8fd8e015429e6a1c6/?d=retro&s=64"
                }
                },
                {
                "first_name": "",
                "id": 63,
                "last_name": "",
                "avatar": {
                "full_size": "https://www.gravatar.com/avatar/0920622e44e8e09f040307b249e0958c/?d=retro&s=1024",
                "small": "https://www.gravatar.com/avatar/0920622e44e8e09f040307b249e0958c/?d=retro&s=64"
                }
                },
                {
                "first_name": "",
                "id": 64,
                "last_name": "",
                "avatar": {
                "full_size": "https://www.gravatar.com/avatar/64966d1523a32d05c328068ed528834d/?d=retro&s=1024",
                "small": "https://www.gravatar.com/avatar/64966d1523a32d05c328068ed528834d/?d=retro&s=64"
                }
                },
                {
                "first_name": "",
                "id": 65,
                "last_name": "",
                "avatar": {
                "full_size": "https://www.gravatar.com/avatar/a294d5978a626bba34f7f63c7410310a/?d=retro&s=1024",
                "small": "https://www.gravatar.com/avatar/a294d5978a626bba34f7f63c7410310a/?d=retro&s=64"
                }
                },
                {
                "first_name": "",
                "id": 66,
                "last_name": "",
                "avatar": {
                "full_size": "https://www.gravatar.com/avatar/3e0393a8067db7582bdb4cac270d318d/?d=retro&s=1024",
                "small": "https://www.gravatar.com/avatar/3e0393a8067db7582bdb4cac270d318d/?d=retro&s=64"
                }
                },
                {
                "first_name": "",
                "id": 67,
                "last_name": "",
                "avatar": {
                "full_size": "https://www.gravatar.com/avatar/6e41d5c9c4350cb4e3da9a93c6bbb503/?d=retro&s=1024",
                "small": "https://www.gravatar.com/avatar/6e41d5c9c4350cb4e3da9a93c6bbb503/?d=retro&s=64"
                }
                },
                {
                "first_name": "",
                "id": 68,
                "last_name": "",
                "avatar": {
                "full_size": "https://www.gravatar.com/avatar/105bd0d3a31f9fa40accc57cb83d48dd/?d=retro&s=1024",
                "small": "https://www.gravatar.com/avatar/105bd0d3a31f9fa40accc57cb83d48dd/?d=retro&s=64"
                }
                },
                {
                "first_name": "",
                "id": 69,
                "last_name": "",
                "avatar": {
                "full_size": "https://www.gravatar.com/avatar/5f30aac733c1cf2159e7af5e79d9b9f7/?d=retro&s=1024",
                "small": "https://www.gravatar.com/avatar/5f30aac733c1cf2159e7af5e79d9b9f7/?d=retro&s=64"
                }
                },
                {
                "first_name": "Seven",
                "id": 71,
                "last_name": "Escalante",
                "avatar": {
                "full_size": "https://baseapp-api-staging.s3.amazonaws.com:443/media/user-avatars/cescala2%40jhu.edu/resized/1024/pic.jpg",
                "small": "https://baseapp-api-staging.s3.amazonaws.com:443/media/user-avatars/cescala2%40jhu.edu/resized/64/pic.jpg"
                }
                },
                {
                "first_name": "",
                "id": 80,
                "last_name": "",
                "avatar": {
                "full_size": "https://www.gravatar.com/avatar/ce787512134a0933f2ebf6cb02b6ccd1/?d=retro&s=1024",
                "small": "https://www.gravatar.com/avatar/ce787512134a0933f2ebf6cb02b6ccd1/?d=retro&s=64"
                }
                },
                {
                "first_name": "Kevin",
                "id": 117,
                "last_name": "L",
                "avatar": {
                "full_size": "https://baseapp-api-staging.s3.amazonaws.com:443/media/user-avatars/kl%2B1%40tsl.io/resized/1024/b81adb95-c07.png",
                "small": "https://baseapp-api-staging.s3.amazonaws.com:443/media/user-avatars/kl%2B1%40tsl.io/resized/64/b81adb95-c07.png"
                }
                },
                {
                "first_name": "",
                "id": 85,
                "last_name": "",
                "avatar": {
                "full_size": "https://www.gravatar.com/avatar/285c6e5434b534fdea02de8e1b6e2946/?d=retro&s=1024",
                "small": "https://www.gravatar.com/avatar/285c6e5434b534fdea02de8e1b6e2946/?d=retro&s=64"
                }
                },
                {
                "first_name": "Cristina",
                "id": 86,
                "last_name": "Phon",
                "avatar": {
                "full_size": "https://baseapp-api-staging.s3.amazonaws.com:443/media/user-avatars/ce%2Bphone%40tsl.io/resized/1024/pic.jpg",
                "small": "https://baseapp-api-staging.s3.amazonaws.com:443/media/user-avatars/ce%2Bphone%40tsl.io/resized/64/pic.jpg"
                }
                },
                {
                "first_name": "Ryan",
                "id": 93,
                "last_name": "Pineo",
                "avatar": {
                "full_size": "https://www.gravatar.com/avatar/446b06d0c22ed467bf84801bcb17b86b/?d=retro&s=1024",
                "small": "https://www.gravatar.com/avatar/446b06d0c22ed467bf84801bcb17b86b/?d=retro&s=64"
                }
                }
                ]
}
